0.155,-0.014,0
,,
0,0,1.3628
0,3,1.3628
0,6,1.3628
0,9,1.3627
0,12,1.3627
0,15,1.3626
0,18,1.3626
0,21,1.3625
0,24,1.3625
0,27,1.3625
0,30,1.3624
0,33,1.3625
0,36,1.3625
0,39,1.3625
0,42,1.3626
0,45,1.3626
0,48,1.3627
0,51,1.3627
0,54,1.3628
0,57,1.3628
0,60,1.3628
0.02,0,1.3087
0.02,3,1.3087
0.02,6,1.3087
0.02,9,1.3088
0.02,12,1.3091
0.02,15,1.3093
0.02,18,1.3097
0.02,21,1.3102
0.02,24,1.3107
0.02,27,1.3113
0.02,30,1.3119
0.02,33,1.3126
0.02,36,1.3132
0.02,39,1.3139
0.02,42,1.3145
0.02,45,1.3151
0.02,48,1.3157
0.02,51,1.3161
0.02,54,1.3165
0.02,57,1.3168
0.02,60,1.3169
0.04,0,1.1567
0.04,3,1.1567
0.04,6,1.1572
0.04,9,1.1581
0.04,12,1.1593
0.04,15,1.161
0.04,18,1.163
0.04,21,1.1652
0.04,24,1.1677
0.04,27,1.1704
0.04,30,1.1732
0.04,33,1.176
0.04,36,1.1787
0.04,39,1.1814
0.04,42,1.1839
0.04,45,1.1862
0.04,48,1.1881
0.04,51,1.1898
0.04,54,1.191
0.04,57,1.1919
0.04,60,1.1923
0.06,0,0.9304
0.06,3,0.9308
0.06,6,0.9323
0.06,9,0.9349
0.06,12,0.9387
0.06,15,0.9434
0.06,18,0.949
0.06,21,0.9553
0.06,24,0.9621
0.06,27,0.9692
0.06,30,0.9766
0.06,33,0.984
0.06,36,0.9911
0.06,39,0.9979
0.06,42,1.0042
0.06,45,1.0098
0.06,48,1.0146
0.06,51,1.0186
0.06,54,1.0215
0.06,57,1.0234
0.06,60,1.0243
0.08,0,0.6661
0.08,3,0.667
0.08,6,0.6703
0.08,9,0.6759
0.08,12,0.6838
0.08,15,0.6935
0.08,18,0.705
0.08,21,0.7178
0.08,24,0.7316
0.08,27,0.746
0.08,30,0.7607
0.08,33,0.7752
0.08,36,0.7893
0.08,39,0.8024
0.08,42,0.8145
0.08,45,0.8251
0.08,48,0.8341
0.08,51,0.8414
0.08,54,0.8468
0.08,57,0.8502
0.08,60,0.8516
0.1,0,0.4027
0.1,3,0.4043
0.1,6,0.4101
0.1,9,0.4199
0.1,12,0.4333
0.1,15,0.45
0.1,18,0.4696
0.1,21,0.4914
0.1,24,0.5148
0.1,27,0.539
0.1,30,0.5635
0.1,33,0.5876
0.1,36,0.6106
0.1,39,0.632
0.1,42,0.6513
0.1,45,0.6681
0.1,48,0.6823
0.1,51,0.6935
0.1,54,0.7018
0.1,57,0.707
0.1,60,0.709
0.12,0,0.1796
0.12,3,0.1821
0.12,6,0.1907
0.12,9,0.2053
0.12,12,0.2253
0.12,15,0.2502
0.12,18,0.2793
0.12,21,0.3117
0.12,24,0.3464
0.12,27,0.3824
0.12,30,0.4185
0.12,33,0.4537
0.12,36,0.4871
0.12,39,0.5178
0.12,42,0.5453
0.12,45,0.5689
0.12,48,0.5884
0.12,51,0.6038
0.12,54,0.6149
0.12,57,0.6218
0.12,60,0.6245
0.14,0,0.0341
0.14,3,0.0375
0.14,6,0.049
0.14,9,0.0683
0.14,12,0.0948
0.14,15,0.1279
0.14,18,0.1667
0.14,21,0.2099
0.14,24,0.2563
0.14,27,0.3044
0.14,30,0.3526
0.14,33,0.3995
0.14,36,0.4437
0.14,39,0.4841
0.14,42,0.5196
0.14,45,0.5498
0.14,48,0.5745
0.14,51,0.5935
0.14,54,0.6071
0.14,57,0.6155
0.14,60,0.6187
0.16,0,0
0.16,3,0.004
0.16,6,0.0176
0.16,9,0.0406
0.16,12,0.0724
0.16,15,0.1121
0.16,18,0.159
0.16,21,0.2114
0.16,24,0.268
0.16,27,0.3268
0.16,30,0.3859
0.16,33,0.4434
0.16,36,0.4974
0.16,39,0.5465
0.16,42,0.5893
0.16,45,0.6253
0.16,48,0.6542
0.16,51,0.6762
0.16,54,0.6917
0.16,57,0.7011
0.16,60,0.7047
0.18,0,0.1015
0.18,3,0.1058
0.18,6,0.1206
0.18,9,0.1456
0.18,12,0.1803
0.18,15,0.2239
0.18,18,0.2754
0.18,21,0.3335
0.18,24,0.3964
0.18,27,0.4622
0.18,30,0.5288
0.18,33,0.5938
0.18,36,0.6549
0.18,39,0.7103
0.18,42,0.7584
0.18,45,0.7986
0.18,48,0.8305
0.18,51,0.8544
0.18,54,0.871
0.18,57,0.881
0.18,60,0.8849
0.2,0,0.3468
0.2,3,0.351
0.2,6,0.3659
0.2,9,0.391
0.2,12,0.426
0.2,15,0.4699
0.2,18,0.5217
0.2,21,0.5802
0.2,24,0.6437
0.2,27,0.7103
0.2,30,0.7779
0.2,33,0.8443
0.2,36,0.907
0.2,39,0.9641
0.2,42,1.0138
0.2,45,1.0553
0.2,48,1.0882
0.2,51,1.1127
0.2,54,1.1297
0.2,57,1.1398
0.2,60,1.1439
0.22,0,0.7183
0.22,3,0.7223
0.22,6,0.7366
0.22,9,0.7608
0.22,12,0.794
0.22,15,0.835
0.22,18,0.8825
0.22,21,0.935
0.22,24,0.9912
0.22,27,1.0495
0.22,30,1.1084
0.22,33,1.1662
0.22,36,1.2213
0.22,39,1.272
0.22,42,1.317
0.22,45,1.3552
0.22,48,1.3863
0.22,51,1.4099
0.22,54,1.4264
0.22,57,1.4365
0.22,60,1.4407
0.24,0,1.1702
0.24,3,1.1739
0.24,6,1.1878
0.24,9,1.2109
0.24,12,1.2415
0.24,15,1.2775
0.24,18,1.3168
0.24,21,1.3574
0.24,24,1.3977
0.24,27,1.4371
0.24,30,1.4752
0.24,33,1.5122
0.24,36,1.548
0.24,39,1.5825
0.24,42,1.6152
0.24,45,1.6454
0.24,48,1.6723
0.24,51,1.6946
0.24,54,1.7114
0.24,57,1.7223
0.24,60,1.727
0.26,0,1.6526
0.26,3,1.6556
0.26,6,1.6679
0.26,9,1.6881
0.26,12,1.714
0.26,15,1.7428
0.26,18,1.7713
0.26,21,1.7965
0.26,24,1.8167
0.26,27,1.8316
0.26,30,1.8426
0.26,33,1.8519
0.26,36,1.862
0.26,39,1.8748
0.26,42,1.8915
0.26,45,1.9119
0.26,48,1.9348
0.26,51,1.9576
0.26,54,1.9771
0.26,57,1.9907
0.26,60,1.9966
0.28,0,2.15
0.28,3,2.1503
0.28,6,2.1553
0.28,9,2.165
0.28,12,2.1787
0.28,15,2.1949
0.28,18,2.2109
0.28,21,2.2234
0.28,24,2.2295
0.28,27,2.2278
0.28,30,2.219
0.28,33,2.2064
0.28,36,2.1943
0.28,39,2.1874
0.28,42,2.1892
0.28,45,2.201
0.28,48,2.2217
0.28,51,2.2473
0.28,54,2.2723
0.28,57,2.2909
0.28,60,2.2989
0.3,0,2.6766
0.3,3,2.6707
0.3,6,2.659
0.3,9,2.6455
0.3,12,2.6352
0.3,15,2.6315
0.3,18,2.6351
0.3,21,2.6435
0.3,24,2.6513
0.3,27,2.6528
0.3,30,2.6439
0.3,33,2.6252
0.3,36,2.6019
0.3,39,2.5814
0.3,42,2.5713
0.3,45,2.5762
0.3,48,2.5961
0.3,51,2.6264
0.3,54,2.6588
0.3,57,2.684
0.3,60,2.6949
0.32,0,3.2485
0.32,3,3.2331
0.32,6,3.1962
0.32,9,3.1493
0.32,12,3.1061
0.32,15,3.0777
0.32,18,3.0702
0.32,21,3.0828
0.32,24,3.1083
0.32,27,3.1347
0.32,30,3.1495
0.32,33,3.1456
0.32,36,3.1254
0.32,39,3.0992
0.32,42,3.0802
0.32,45,3.0787
0.32,48,3.098
0.32,51,3.1337
0.32,54,3.1751
0.32,57,3.2087
0.32,60,3.2231
0.34,0,3.8873
0.34,3,3.8605
0.34,6,3.7942
0.34,9,3.7092
0.34,12,3.6293
0.34,15,3.5742
0.34,18,3.5549
0.34,21,3.5737
0.34,24,3.6231
0.34,27,3.6872
0.34,30,3.7452
0.34,33,3.7775
0.34,36,3.7777
0.34,39,3.7555
0.34,42,3.731
0.34,45,3.7227
0.34,48,3.7404
0.34,51,3.7814
0.34,54,3.8329
0.34,57,3.8765
0.34,60,3.8952
0.36,0,4.6289
0.36,3,4.5902
0.36,6,4.4932
0.36,9,4.3681
0.36,12,4.2486
0.36,15,4.1619
0.36,18,4.1245
0.36,21,4.1423
0.36,24,4.2102
0.36,27,4.3124
0.36,30,4.4224
0.36,33,4.5084
0.36,36,4.5479
0.36,39,4.5426
0.36,42,4.5173
0.36,45,4.502
0.36,48,4.5159
0.36,51,4.5609
0.36,54,4.623
0.36,57,4.6781
0.36,60,4.7021
0.38,0,5.5135
0.38,3,5.4632
0.38,6,5.3353
0.38,9,5.1679
0.38,12,5.003
0.38,15,4.8746
0.38,18,4.8056
0.38,21,4.807
0.38,24,4.8783
0.38,27,5.0068
0.38,30,5.1653
0.38,33,5.3133
0.38,36,5.409
0.38,39,5.4362
0.38,42,5.4178
0.38,45,5.3958
0.38,48,5.4028
0.38,51,5.4487
0.38,54,5.5205
0.38,57,5.5882
0.38,60,5.6183
0.4,0,6.5737
0.4,3,6.5128
0.4,6,6.3553
0.4,9,6.1434
0.4,12,5.9251
0.4,15,5.7417
0.4,18,5.6232
0.4,21,5.5875
0.4,24,5.6404
0.4,27,5.7744
0.4,30,5.9655
0.4,33,6.17
0.4,36,6.3303
0.4,39,6.4048
0.4,42,6.4033
0.4,45,6.3762
0.4,48,6.3726
0.4,51,6.4141
0.4,54,6.4915
0.4,57,6.5706
0.4,60,6.6068
0.42,0,7.8253
0.42,3,7.7562
0.42,6,7.5734
0.42,9,7.3182
0.42,12,7.0416
0.42,15,6.7919
0.42,18,6.6076
0.42,21,6.5145
0.42,24,6.5253
0.42,27,6.6386
0.42,30,6.8364
0.42,33,7.0775
0.42,36,7.2958
0.42,39,7.4244
0.42,42,7.448
0.42,45,7.4175
0.42,48,7.3986
0.42,51,7.4279
0.42,54,7.5035
0.42,57,7.5889
0.42,60,7.6298
0.44,0,9.2595
0.44,3,9.1865
0.44,6,8.9888
0.44,9,8.7007
0.44,12,8.3714
0.44,15,8.0538
0.44,18,7.7947
0.44,21,7.6287
0.44,24,7.5758
0.44,27,7.6414
0.44,30,7.8144
0.44,33,8.0608
0.44,36,8.314
0.44,39,8.4886
0.44,42,8.538
0.44,45,8.5022
0.44,48,8.4615
0.44,51,8.4694
0.44,54,8.5339
0.44,57,8.6184
0.44,60,8.661
0.46,0,10.8624
0.46,3,10.7888
0.46,6,10.5874
0.46,9,10.2842
0.46,12,9.9209
0.46,15,9.5482
0.46,18,9.2174
0.46,21,8.971
0.46,24,8.8375
0.46,27,8.8293
0.46,30,8.944
0.46,33,9.1576
0.46,36,9.4098
0.46,39,9.605
0.46,42,9.6679
0.46,45,9.6195
0.46,48,9.5494
0.46,51,9.5285
0.46,54,9.5749
0.46,57,9.6531
0.46,60,9.6954
0.48,0,12.6699
0.48,3,12.5933
0.48,6,12.3849
0.48,9,12.0711
0.48,12,11.6891
0.48,15,11.2818
0.48,18,10.8944
0.48,21,10.5707
0.48,24,10.3459
0.48,27,10.2409
0.48,30,10.2636
0.48,33,10.4034
0.48,36,10.6108
0.48,39,10.7875
0.48,42,10.8377
0.48,45,10.7638
0.48,48,10.6588
0.48,51,10.6069
0.48,54,10.6352
0.48,57,10.7078
0.48,60,10.75
0.5,0,14.7707
0.5,3,14.6838
0.5,6,14.4501
0.5,9,14.1054
0.5,12,13.6938
0.5,15,13.2565
0.5,18,12.8278
0.5,21,12.4388
0.5,24,12.1207
0.5,27,11.9009
0.5,30,11.8003
0.5,33,11.8255
0.5,36,11.9422
0.5,39,12.0549
0.5,42,12.0576
0.5,45,11.9419
0.5,48,11.7993
0.5,51,11.72
0.5,54,11.7362
0.5,57,11.8096
0.5,60,11.8547
