0.256,0.005,0
,,
0,0,6.8458
0,3,6.8458
0,6,6.8458
0,9,6.8458
0,12,6.8458
0,15,6.8458
0,18,6.8458
0,21,6.8458
0,24,6.8458
0,27,6.8458
0,30,6.8458
0,33,6.8458
0,36,6.8458
0,39,6.8458
0,42,6.8458
0,45,6.8458
0,48,6.8458
0,51,6.8458
0,54,6.8458
0,57,6.8458
0,60,6.8458
0.02,0,6.7758
0.02,3,6.7758
0.02,6,6.7759
0.02,9,6.776
0.02,12,6.7762
0.02,15,6.7765
0.02,18,6.7768
0.02,21,6.7771
0.02,24,6.7775
0.02,27,6.7778
0.02,30,6.7782
0.02,33,6.7786
0.02,36,6.779
0.02,39,6.7794
0.02,42,6.7798
0.02,45,6.7801
0.02,48,6.7803
0.02,51,6.7806
0.02,54,6.7807
0.02,57,6.7808
0.02,60,6.7809
0.04,0,6.5586
0.04,3,6.5588
0.04,6,6.5595
0.04,9,6.5606
0.04,12,6.5621
0.04,15,6.564
0.04,18,6.5662
0.04,21,6.5687
0.04,24,6.5715
0.04,27,6.5743
0.04,30,6.5773
0.04,33,6.5802
0.04,36,6.5831
0.04,39,6.5858
0.04,42,6.5883
0.04,45,6.5906
0.04,48,6.5925
0.04,51,6.5941
0.04,54,6.5952
0.04,57,6.596
0.04,60,6.5962
0.06,0,6.1874
0.06,3,6.1881
0.06,6,6.1903
0.06,9,6.1938
0.06,12,6.1986
0.06,15,6.2047
0.06,18,6.2117
0.06,21,6.2197
0.06,24,6.2283
0.06,27,6.2374
0.06,30,6.2468
0.06,33,6.2561
0.06,36,6.2653
0.06,39,6.274
0.06,42,6.2821
0.06,45,6.2893
0.06,48,6.2955
0.06,51,6.3005
0.06,54,6.3042
0.06,57,6.3064
0.06,60,6.3072
0.08,0,5.6608
0.08,3,5.6624
0.08,6,5.6672
0.08,9,5.675
0.08,12,5.6858
0.08,15,5.6993
0.08,18,5.715
0.08,21,5.7328
0.08,24,5.7521
0.08,27,5.7723
0.08,30,5.7933
0.08,33,5.8144
0.08,36,5.835
0.08,39,5.8547
0.08,42,5.873
0.08,45,5.8894
0.08,48,5.9035
0.08,51,5.9148
0.08,54,5.9232
0.08,57,5.9283
0.08,60,5.93
0.1,0,4.9872
0.1,3,4.9902
0.1,6,4.999
0.1,9,5.0135
0.1,12,5.0334
0.1,15,5.0582
0.1,18,5.0874
0.1,21,5.1201
0.1,24,5.1558
0.1,27,5.1935
0.1,30,5.2323
0.1,33,5.2714
0.1,36,5.3098
0.1,39,5.3465
0.1,42,5.3807
0.1,45,5.4114
0.1,48,5.4378
0.1,51,5.4592
0.1,54,5.4749
0.1,57,5.4846
0.1,60,5.4879
0.12,0,4.1956
0.12,3,4.2004
0.12,6,4.2149
0.12,9,4.2386
0.12,12,4.271
0.12,15,4.3114
0.12,18,4.3587
0.12,21,4.412
0.12,24,4.4699
0.12,27,4.5312
0.12,30,4.5944
0.12,33,4.658
0.12,36,4.7205
0.12,39,4.7806
0.12,42,4.8365
0.12,45,4.887
0.12,48,4.9306
0.12,51,4.966
0.12,54,4.9922
0.12,57,5.0083
0.12,60,5.0138
0.14,0,3.3359
0.14,3,3.343
0.14,6,3.3645
0.14,9,3.3997
0.14,12,3.4477
0.14,15,3.5075
0.14,18,3.5775
0.14,21,3.656
0.14,24,3.7413
0.14,27,3.8314
0.14,30,3.9243
0.14,33,4.0178
0.14,36,4.1099
0.14,39,4.1983
0.14,42,4.2811
0.14,45,4.3561
0.14,48,4.4211
0.14,51,4.4741
0.14,54,4.5135
0.14,57,4.5378
0.14,60,4.546
0.16,0,2.4687
0.16,3,2.4786
0.16,6,2.5081
0.16,9,2.5565
0.16,12,2.6225
0.16,15,2.7044
0.16,18,2.8002
0.16,21,2.9076
0.16,24,3.0239
0.16,27,3.1465
0.16,30,3.2727
0.16,33,3.3995
0.16,36,3.5245
0.16,39,3.6447
0.16,42,3.7575
0.16,45,3.86
0.16,48,3.9494
0.16,51,4.0227
0.16,54,4.0774
0.16,57,4.1111
0.16,60,4.1226
0.18,0,1.6554
0.18,3,1.6681
0.18,6,1.706
0.18,9,1.7682
0.18,12,1.853
0.18,15,1.9584
0.18,18,2.0817
0.18,21,2.2196
0.18,24,2.3689
0.18,27,2.526
0.18,30,2.6872
0.18,33,2.8491
0.18,36,3.0083
0.18,39,3.1617
0.18,42,3.3058
0.18,45,3.4372
0.18,48,3.5523
0.18,51,3.6471
0.18,54,3.7181
0.18,57,3.762
0.18,60,3.7769
0.2,0,0.9532
0.2,3,0.9685
0.2,6,1.014
0.2,9,1.089
0.2,12,1.1916
0.2,15,1.3194
0.2,18,1.4694
0.2,21,1.6377
0.2,24,1.82
0.2,27,2.0117
0.2,30,2.2083
0.2,33,2.4053
0.2,36,2.5989
0.2,39,2.7852
0.2,42,2.9604
0.2,45,3.1205
0.2,48,3.2611
0.2,51,3.3773
0.2,54,3.4642
0.2,57,3.5181
0.2,60,3.5364
0.22,0,0.4143
0.22,3,0.4314
0.22,6,0.4827
0.22,9,0.5674
0.22,12,0.6841
0.22,15,0.8307
0.22,18,1.004
0.22,21,1.1997
0.22,24,1.4127
0.22,27,1.6373
0.22,30,1.8679
0.22,33,2.0988
0.22,36,2.3254
0.22,39,2.5431
0.22,42,2.748
0.22,45,2.9354
0.22,48,3.0999
0.22,51,3.2357
0.22,54,3.337
0.22,57,3.3995
0.22,60,3.4206
0.24,0,0.0842
0.24,3,0.1022
0.24,6,0.1561
0.24,9,0.2456
0.24,12,0.3704
0.24,15,0.529
0.24,18,0.7189
0.24,21,0.9359
0.24,24,1.1744
0.24,27,1.4279
0.24,30,1.689
0.24,33,1.9509
0.24,36,2.2076
0.24,39,2.4541
0.24,42,2.6858
0.24,45,2.8975
0.24,48,3.083
0.24,51,3.235
0.24,54,3.3472
0.24,57,3.4154
0.24,60,3.4383
0.26,0,0
0.26,3,0.0174
0.26,6,0.0698
0.26,9,0.158
0.26,12,0.2828
0.26,15,0.4442
0.26,18,0.641
0.26,21,0.8698
0.26,24,1.1254
0.26,27,1.4
0.26,30,1.6852
0.26,33,1.9723
0.26,36,2.2539
0.26,39,2.5241
0.26,42,2.7776
0.26,45,3.0088
0.26,48,3.2098
0.26,51,3.3722
0.26,54,3.4892
0.26,57,3.5585
0.26,60,3.5813
0.28,0,0.187
0.28,3,0.2024
0.28,6,0.2491
0.28,9,0.329
0.28,12,0.4446
0.28,15,0.5978
0.28,18,0.7893
0.28,21,1.0173
0.28,24,1.277
0.28,27,1.5606
0.28,30,1.8584
0.28,33,2.16
0.28,36,2.4566
0.28,39,2.7414
0.28,42,3.0084
0.28,45,3.2506
0.28,48,3.4585
0.28,51,3.6218
0.28,54,3.7343
0.28,57,3.7976
0.28,60,3.8176
0.3,0,0.6556
0.3,3,0.6677
0.3,6,0.7048
0.3,9,0.77
0.3,12,0.8672
0.3,15,1.0007
0.3,18,1.1731
0.3,21,1.3841
0.3,24,1.6303
0.3,27,1.9039
0.3,30,2.1947
0.3,33,2.4921
0.3,36,2.7868
0.3,39,3.0716
0.3,42,3.3398
0.3,45,3.5825
0.3,48,3.7865
0.3,51,3.9393
0.3,54,4.0369
0.3,57,4.087
0.3,60,4.1017
0.32,0,1.3967
0.32,3,1.4047
0.32,6,1.4296
0.32,9,1.4753
0.32,12,1.5471
0.32,15,1.6503
0.32,18,1.7889
0.32,21,1.9643
0.32,24,2.1735
0.32,27,2.4102
0.32,30,2.6657
0.32,33,2.9318
0.32,36,3.202
0.32,39,3.4706
0.32,42,3.7295
0.32,45,3.9654
0.32,48,4.1597
0.32,51,4.2964
0.32,54,4.3745
0.32,57,4.4089
0.32,60,4.4178
0.34,0,2.3785
0.34,3,2.3822
0.34,6,2.3945
0.34,9,2.4192
0.34,12,2.4615
0.34,15,2.5265
0.34,18,2.6182
0.34,21,2.7379
0.34,24,2.8842
0.34,27,3.054
0.34,30,3.2445
0.34,33,3.4542
0.34,36,3.6823
0.34,39,3.925
0.34,42,4.1718
0.34,45,4.4027
0.34,48,4.5907
0.34,51,4.7149
0.34,54,4.7766
0.34,57,4.7976
0.34,60,4.8014
0.36,0,3.549
0.36,3,3.5488
0.36,6,3.5491
0.36,9,3.5538
0.36,12,3.5667
0.36,15,3.5903
0.36,18,3.6258
0.36,21,3.6741
0.36,24,3.7377
0.36,27,3.8209
0.36,30,3.9304
0.36,33,4.0735
0.36,36,4.2543
0.36,39,4.4699
0.36,42,4.7069
0.36,45,4.9386
0.36,48,5.1276
0.36,51,5.2455
0.36,54,5.295
0.36,57,5.3051
0.36,60,5.3046
0.38,0,4.8549
0.38,3,4.8493
0.38,6,4.8346
0.38,9,4.8163
0.38,12,4.7984
0.38,15,4.7802
0.38,18,4.759
0.38,21,4.7352
0.38,24,4.7162
0.38,27,4.7156
0.38,30,4.7494
0.38,33,4.8309
0.38,36,4.9671
0.38,39,5.1561
0.38,42,5.3841
0.38,45,5.6193
0.38,48,5.8135
0.38,51,5.9283
0.38,54,5.9673
0.38,57,5.9672
0.38,60,5.9628
0.4,0,6.2863
0.4,3,6.2701
0.4,6,6.2258
0.4,9,6.1651
0.4,12,6.0986
0.4,15,6.0306
0.4,18,5.9595
0.4,21,5.8845
0.4,24,5.8113
0.4,27,5.7542
0.4,30,5.7326
0.4,33,5.7642
0.4,36,5.8593
0.4,39,6.0199
0.4,42,6.2353
0.4,45,6.4721
0.4,48,6.6717
0.4,51,6.7837
0.4,54,6.8117
0.4,57,6.8014
0.4,60,6.793
0.42,0,7.8991
0.42,3,7.8636
0.42,6,7.7656
0.42,9,7.6283
0.42,12,7.4777
0.42,15,7.3346
0.42,18,7.2109
0.42,21,7.1086
0.42,24,7.0221
0.42,27,6.9486
0.42,30,6.8987
0.42,33,6.893
0.42,36,6.9493
0.42,39,7.0772
0.42,42,7.2732
0.42,45,7.5065
0.42,48,7.7096
0.42,51,7.8179
0.42,54,7.8343
0.42,57,7.8135
0.42,60,7.801
0.44,0,9.7787
0.44,3,9.7147
0.44,6,9.5385
0.44,9,9.2913
0.44,12,9.0211
0.44,15,8.7711
0.44,18,8.5726
0.44,21,8.438
0.44,24,8.3557
0.44,27,8.2979
0.44,30,8.2481
0.44,33,8.2194
0.44,36,8.2388
0.44,39,8.3283
0.44,42,8.4961
0.44,45,8.7188
0.44,48,8.9228
0.44,51,9.0273
0.44,54,9.0326
0.44,57,9.002
0.44,60,8.9859
0.46,0,11.994
0.46,3,11.8939
0.46,6,11.6202
0.46,9,11.239
0.46,12,10.8239
0.46,15,10.4403
0.46,18,10.1367
0.46,21,9.9378
0.46,24,9.8371
0.46,27,9.7962
0.46,30,9.7659
0.46,33,9.7297
0.46,36,9.715
0.46,39,9.7601
0.46,42,9.8897
0.46,45,10.0928
0.46,48,10.2944
0.46,51,10.3973
0.46,54,10.3953
0.46,57,10.3579
0.46,60,10.3392
0.48,0,14.5771
0.48,3,14.4363
0.48,6,14.0545
0.48,9,13.5265
0.48,12,12.952
0.48,15,12.4148
0.48,18,11.9771
0.48,21,11.6741
0.48,24,11.5091
0.48,27,11.4491
0.48,30,11.4301
0.48,33,11.3964
0.48,36,11.3526
0.48,39,11.3479
0.48,42,11.428
0.48,45,11.5998
0.48,48,11.7937
0.48,51,11.899
0.48,54,11.8984
0.48,57,11.8615
0.48,60,11.8428
0.5,0,17.5282
0.5,3,17.3476
0.5,6,16.859
0.5,9,16.1835
0.5,12,15.4428
0.5,15,14.7366
0.5,18,14.1385
0.5,21,13.6935
0.5,24,13.4147
0.5,27,13.28
0.5,30,13.2308
0.5,33,13.1892
0.5,36,13.1189
0.5,39,13.0604
0.5,42,13.0781
0.5,45,13.2017
0.5,48,13.3763
0.5,51,13.4867
0.5,54,13.5015
0.5,57,13.4777
0.5,60,13.4637
