0.242,-0.027,1
,,
0,0,5.7702
0,3,5.7702
0,6,5.7702
0,9,5.7702
0,12,5.7703
0,15,5.7703
0,18,5.7704
0,21,5.7704
0,24,5.7705
0,27,5.7705
0,30,5.7705
0,33,5.7705
0,36,5.7705
0,39,5.7704
0,42,5.7704
0,45,5.7703
0,48,5.7703
0,51,5.7702
0,54,5.7702
0,57,5.7702
0,60,5.7702
0.02,0,5.6879
0.02,3,5.6877
0.02,6,5.6878
0.02,9,5.6881
0.02,12,5.6888
0.02,15,5.6897
0.02,18,5.6909
0.02,21,5.6922
0.02,24,5.6938
0.02,27,5.6955
0.02,30,5.6973
0.02,33,5.6991
0.02,36,5.7009
0.02,39,5.7027
0.02,42,5.7044
0.02,45,5.7061
0.02,48,5.7075
0.02,51,5.7087
0.02,54,5.7098
0.02,57,5.7105
0.02,60,5.711
0.04,0,5.4529
0.04,3,5.4527
0.04,6,5.4533
0.04,9,5.4548
0.04,12,5.4571
0.04,15,5.4603
0.04,18,5.4642
0.04,21,5.4688
0.04,24,5.4741
0.04,27,5.4797
0.04,30,5.4856
0.04,33,5.4917
0.04,36,5.4978
0.04,39,5.5037
0.04,42,5.5094
0.04,45,5.5147
0.04,48,5.5193
0.04,51,5.5233
0.04,54,5.5264
0.04,57,5.5286
0.04,60,5.5298
0.06,0,5.0652
0.06,3,5.0651
0.06,6,5.067
0.06,9,5.071
0.06,12,5.0769
0.06,15,5.0846
0.06,18,5.0941
0.06,21,5.1051
0.06,24,5.1175
0.06,27,5.131
0.06,30,5.1452
0.06,33,5.1599
0.06,36,5.1746
0.06,39,5.1891
0.06,42,5.2028
0.06,45,5.2154
0.06,48,5.2265
0.06,51,5.2358
0.06,54,5.2429
0.06,57,5.2478
0.06,60,5.2502
0.08,0,4.5348
0.08,3,4.5352
0.08,6,4.5393
0.08,9,4.5472
0.08,12,4.5587
0.08,15,4.5737
0.08,18,4.5921
0.08,21,4.6135
0.08,24,4.6375
0.08,27,4.6638
0.08,30,4.6916
0.08,33,4.7205
0.08,36,4.7496
0.08,39,4.7781
0.08,42,4.8052
0.08,45,4.8302
0.08,48,4.8521
0.08,51,4.8704
0.08,54,4.8844
0.08,57,4.8936
0.08,60,4.8977
0.1,0,3.8849
0.1,3,3.886
0.1,6,3.8933
0.1,9,3.9067
0.1,12,3.9261
0.1,15,3.9513
0.1,18,3.982
0.1,21,4.0179
0.1,24,4.0584
0.1,27,4.1027
0.1,30,4.1499
0.1,33,4.1989
0.1,36,4.2484
0.1,39,4.2971
0.1,42,4.3436
0.1,45,4.3865
0.1,48,4.4242
0.1,51,4.4556
0.1,54,4.4794
0.1,57,4.4949
0.1,60,4.5014
0.12,0,3.1531
0.12,3,3.1554
0.12,6,3.1669
0.12,9,3.1875
0.12,12,3.2172
0.12,15,3.2557
0.12,18,3.3024
0.12,21,3.3571
0.12,24,3.4187
0.12,27,3.4862
0.12,30,3.5581
0.12,33,3.6328
0.12,36,3.7085
0.12,39,3.783
0.12,42,3.8543
0.12,45,3.92
0.12,48,3.9781
0.12,51,4.0264
0.12,54,4.0631
0.12,57,4.0867
0.12,60,4.0962
0.14,0,2.39
0.14,3,2.3938
0.14,6,2.4106
0.14,9,2.4403
0.14,12,2.4828
0.14,15,2.5375
0.14,18,2.604
0.14,21,2.6814
0.14,24,2.7684
0.14,27,2.8635
0.14,30,2.9647
0.14,33,3.0696
0.14,36,3.1757
0.14,39,3.2802
0.14,42,3.38
0.14,45,3.4721
0.14,48,3.5537
0.14,51,3.6217
0.14,54,3.6734
0.14,57,3.7066
0.14,60,3.7197
0.16,0,1.6529
0.16,3,1.6585
0.16,6,1.6815
0.16,9,1.7217
0.16,12,1.7788
0.16,15,1.8522
0.16,18,1.9411
0.16,21,2.0442
0.16,24,2.1599
0.16,27,2.286
0.16,30,2.4198
0.16,33,2.558
0.16,36,2.6971
0.16,39,2.8336
0.16,42,2.9635
0.16,45,3.0834
0.16,48,3.1895
0.16,51,3.2782
0.16,54,3.3458
0.16,57,3.3892
0.16,60,3.4061
0.18,0,0.9984
0.18,3,1.0058
0.18,6,1.0352
0.18,9,1.0864
0.18,12,1.1589
0.18,15,1.252
0.18,18,1.3645
0.18,21,1.495
0.18,24,1.6412
0.18,27,1.8002
0.18,30,1.9683
0.18,33,2.1412
0.18,36,2.3143
0.18,39,2.4829
0.18,42,2.6424
0.18,45,2.7889
0.18,48,2.9182
0.18,51,3.0264
0.18,54,3.1091
0.18,57,3.1624
0.18,60,3.1831
0.2,0,0.4776
0.2,3,0.4866
0.2,6,0.5219
0.2,9,0.5833
0.2,12,0.6703
0.2,15,0.7821
0.2,18,0.9176
0.2,21,1.075
0.2,24,1.2515
0.2,27,1.4436
0.2,30,1.6462
0.2,33,1.8539
0.2,36,2.0602
0.2,39,2.2593
0.2,42,2.4458
0.2,45,2.6153
0.2,48,2.7642
0.2,51,2.8886
0.2,54,2.984
0.2,57,3.0457
0.2,60,3.0696
0.22,0,0.1336
0.22,3,0.1437
0.22,6,0.1834
0.22,9,0.2527
0.22,12,0.3513
0.22,15,0.4788
0.22,18,0.6342
0.22,21,0.8156
0.22,24,1.0202
0.22,27,1.2434
0.22,30,1.4792
0.22,33,1.72
0.22,36,1.9575
0.22,39,2.184
0.22,42,2.3931
0.22,45,2.5805
0.22,48,2.7432
0.22,51,2.8783
0.22,54,2.9821
0.22,57,3.0494
0.22,60,3.0757
0.24,0,0
0.24,3,0.0103
0.24,6,0.0518
0.24,9,0.1251
0.24,12,0.2305
0.24,15,0.3682
0.24,18,0.5378
0.24,21,0.7379
0.24,24,0.9656
0.24,27,1.2158
0.24,30,1.481
0.24,33,1.7518
0.24,36,2.0169
0.24,39,2.2662
0.24,42,2.492
0.24,45,2.6901
0.24,48,2.8589
0.24,51,2.9976
0.24,54,3.1034
0.24,57,3.1722
0.24,60,3.1994
0.26,0,0.0992
0.26,3,0.1085
0.26,6,0.1485
0.26,9,0.2205
0.26,12,0.3259
0.26,15,0.4658
0.26,18,0.641
0.26,21,0.851
0.26,24,1.0933
0.26,27,1.3629
0.26,30,1.651
0.26,33,1.9456
0.26,36,2.2327
0.26,39,2.4984
0.26,42,2.7331
0.26,45,2.9329
0.26,48,3.0983
0.26,51,3.2308
0.26,54,3.3302
0.26,57,3.3942
0.26,60,3.4201
0.28,0,0.4406
0.28,3,0.4475
0.28,6,0.4821
0.28,9,0.5465
0.28,12,0.6431
0.28,15,0.7746
0.28,18,0.9433
0.28,21,1.1499
0.28,24,1.3934
0.28,27,1.6694
0.28,30,1.9687
0.28,33,2.2772
0.28,36,2.5768
0.28,39,2.8497
0.28,42,3.0837
0.28,45,3.2746
0.28,48,3.4252
0.28,51,3.5402
0.28,54,3.6222
0.28,57,3.6731
0.28,60,3.6943
0.3,0,1.0199
0.3,3,1.023
0.3,6,1.0478
0.3,9,1.0972
0.3,12,1.1748
0.3,15,1.2846
0.3,18,1.4303
0.3,21,1.6149
0.3,24,1.8394
0.3,27,2.1018
0.3,30,2.3942
0.3,33,2.7013
0.3,36,3.0014
0.3,39,3.2715
0.3,42,3.4956
0.3,45,3.6689
0.3,48,3.7957
0.3,51,3.8828
0.3,54,3.937
0.3,57,3.9662
0.3,60,3.9795
0.32,0,1.8239
0.32,3,1.8215
0.32,6,1.8316
0.32,9,1.8576
0.32,12,1.9038
0.32,15,1.9755
0.32,18,2.0781
0.32,21,2.2176
0.32,24,2.3992
0.32,27,2.6248
0.32,30,2.8901
0.32,33,3.1801
0.32,36,3.4703
0.32,39,3.7321
0.32,42,3.9438
0.32,45,4.0975
0.32,48,4.1977
0.32,51,4.2531
0.32,54,4.2745
0.32,57,4.2782
0.32,60,4.2823
0.34,0,2.8389
0.34,3,2.8291
0.34,6,2.8188
0.34,9,2.811
0.34,12,2.8108
0.34,15,2.8256
0.34,18,2.8648
0.34,21,2.9393
0.34,24,3.0596
0.34,27,3.2325
0.34,30,3.4572
0.34,33,3.7207
0.34,36,3.9965
0.34,39,4.2505
0.34,42,4.4532
0.34,45,4.5914
0.34,48,4.6678
0.34,51,4.693
0.34,54,4.6824
0.34,57,4.6609
0.34,60,4.6559
0.36,0,4.0499
0.36,3,4.0307
0.36,6,3.9933
0.36,9,3.9403
0.36,12,3.8789
0.36,15,3.8215
0.36,18,3.7845
0.36,21,3.7855
0.36,24,3.8391
0.36,27,3.9555
0.36,30,4.1358
0.36,33,4.3688
0.36,36,4.6277
0.36,39,4.8741
0.36,42,5.0707
0.36,45,5.197
0.36,48,5.2535
0.36,51,5.2516
0.36,54,5.2113
0.36,57,5.1663
0.36,60,5.1529
0.38,0,5.4274
0.38,3,5.3961
0.38,6,5.3244
0.38,9,5.2169
0.38,12,5.0866
0.38,15,4.9548
0.38,18,4.8454
0.38,21,4.7794
0.38,24,4.7731
0.38,27,4.8369
0.38,30,4.9726
0.38,33,5.1706
0.38,36,5.4062
0.38,39,5.6398
0.38,42,5.8285
0.38,45,5.9442
0.38,48,5.9831
0.38,51,5.9571
0.38,54,5.8897
0.38,57,5.8228
0.38,60,5.8015
0.4,0,6.9285
0.4,3,6.8815
0.4,6,6.768
0.4,9,6.6013
0.4,12,6.4068
0.4,15,6.215
0.4,18,6.0532
0.4,21,5.9408
0.4,24,5.89
0.4,27,5.9086
0.4,30,5.9989
0.4,33,6.1546
0.4,36,6.3554
0.4,39,6.5649
0.4,42,6.7381
0.4,45,6.841
0.4,48,6.8639
0.4,51,6.8163
0.4,54,6.7241
0.4,57,6.6365
0.4,60,6.6077
0.42,0,8.5416
0.42,3,8.4748
0.42,6,8.3122
0.42,9,8.0854
0.42,12,7.836
0.42,15,7.6018
0.42,18,7.4097
0.42,21,7.2739
0.42,24,7.1986
0.42,27,7.1836
0.42,30,7.2289
0.42,33,7.3326
0.42,36,7.4827
0.42,39,7.6507
0.42,42,7.7953
0.42,45,7.8793
0.42,48,7.886
0.42,51,7.8189
0.42,54,7.7032
0.42,57,7.5953
0.42,60,7.559
0.44,0,10.3267
0.44,3,10.2364
0.44,6,10.0174
0.44,9,9.7249
0.44,12,9.4183
0.44,15,9.1427
0.44,18,8.9244
0.44,21,8.7739
0.44,24,8.688
0.44,27,8.6535
0.44,30,8.6586
0.44,33,8.7019
0.44,36,8.7829
0.44,39,8.8872
0.44,42,8.9838
0.44,45,9.0379
0.44,48,9.0258
0.44,51,8.9396
0.44,54,8.7996
0.44,57,8.6698
0.44,60,8.6255
0.46,0,12.3857
0.46,3,12.2687
0.46,6,11.9845
0.46,9,11.6117
0.46,12,11.2277
0.46,15,10.8874
0.46,18,10.6218
0.46,21,10.4413
0.46,24,10.3388
0.46,27,10.2907
0.46,30,10.2648
0.46,33,10.2456
0.46,36,10.2409
0.46,39,10.2568
0.46,42,10.2806
0.46,45,10.2873
0.46,48,10.2496
0.46,51,10.1426
0.46,54,9.9751
0.46,57,9.8196
0.46,60,9.7656
0.48,0,14.8091
0.48,3,14.6633
0.48,6,14.3057
0.48,9,13.834
0.48,12,13.3422
0.48,15,12.8986
0.48,18,12.5441
0.48,21,12.2947
0.48,24,12.1443
0.48,27,12.0658
0.48,30,12.0113
0.48,33,11.9352
0.48,36,11.8359
0.48,39,11.7402
0.48,42,11.6623
0.48,45,11.5967
0.48,48,11.5205
0.48,51,11.3895
0.48,54,11.1912
0.48,57,11.0061
0.48,60,10.9412
0.5,0,17.6556
0.5,3,17.4801
0.5,6,17.0428
0.5,9,16.455
0.5,12,15.8262
0.5,15,15.239
0.5,18,14.7476
0.5,21,14.3779
0.5,24,14.1295
0.5,27,13.9779
0.5,30,13.873
0.5,33,13.7429
0.5,36,13.5492
0.5,39,13.323
0.5,42,13.1112
0.5,45,12.9407
0.5,48,12.8051
0.5,51,12.6457
0.5,54,12.4181
0.5,57,12.2043
0.5,60,12.1288
