   .0510     .0020     .0000
 
   .0000     .0000     .0063
   .0000    3.0000     .0063
   .0000    6.0000     .0063
   .0000    9.0000     .0063
   .0000   12.0000     .0063
   .0000   15.0000     .0063
   .0000   18.0000     .0063
   .0000   21.0000     .0063
   .0000   24.0000     .0063
   .0000   27.0000     .0063
   .0000   30.0000     .0063
   .0000   33.0000     .0063
   .0000   36.0000     .0063
   .0000   39.0000     .0063
   .0000   42.0000     .0063
   .0000   45.0000     .0063
   .0000   48.0000     .0063
   .0000   51.0000     .0063
   .0000   54.0000     .0063
   .0000   57.0000     .0063
   .0000   60.0000     .0063
   .0200     .0000     .0045
   .0200    3.0000     .0045
   .0200    6.0000     .0046
   .0200    9.0000     .0046
   .0200   12.0000     .0047
   .0200   15.0000     .0048
   .0200   18.0000     .0049
   .0200   21.0000     .0050
   .0200   24.0000     .0051
   .0200   27.0000     .0052
   .0200   30.0000     .0053
   .0200   33.0000     .0055
   .0200   36.0000     .0056
   .0200   39.0000     .0057
   .0200   42.0000     .0058
   .0200   45.0000     .0059
   .0200   48.0000     .0060
   .0200   51.0000     .0061
   .0200   54.0000     .0061
   .0200   57.0000     .0062
   .0200   60.0000     .0062
   .0400     .0000     .0000
   .0400    3.0000     .0001
   .0400    6.0000     .0003
   .0400    9.0000     .0007
   .0400   12.0000     .0012
   .0400   15.0000     .0018
   .0400   18.0000     .0025
   .0400   21.0000     .0033
   .0400   24.0000     .0042
   .0400   27.0000     .0051
   .0400   30.0000     .0061
   .0400   33.0000     .0071
   .0400   36.0000     .0080
   .0400   39.0000     .0089
   .0400   42.0000     .0098
   .0400   45.0000     .0105
   .0400   48.0000     .0111
   .0400   51.0000     .0116
   .0400   54.0000     .0120
   .0400   57.0000     .0123
   .0400   60.0000     .0123
   .0600     .0000     .0000
   .0600    3.0000     .0002
   .0600    6.0000     .0009
   .0600    9.0000     .0020
   .0600   12.0000     .0035
   .0600   15.0000     .0053
   .0600   18.0000     .0075
   .0600   21.0000     .0099
   .0600   24.0000     .0126
   .0600   27.0000     .0154
   .0600   30.0000     .0183
   .0600   33.0000     .0213
   .0600   36.0000     .0241
   .0600   39.0000     .0269
   .0600   42.0000     .0294
   .0600   45.0000     .0317
   .0600   48.0000     .0337
   .0600   51.0000     .0352
   .0600   54.0000     .0364
   .0600   57.0000     .0371
   .0600   60.0000     .0374
   .0800     .0000     .0174
   .0800    3.0000     .0179
   .0800    6.0000     .0192
   .0800    9.0000     .0214
   .0800   12.0000     .0243
   .0800   15.0000     .0280
   .0800   18.0000     .0324
   .0800   21.0000     .0373
   .0800   24.0000     .0427
   .0800   27.0000     .0485
   .0800   30.0000     .0544
   .0800   33.0000     .0604
   .0800   36.0000     .0663
   .0800   39.0000     .0720
   .0800   42.0000     .0772
   .0800   45.0000     .0820
   .0800   48.0000     .0861
   .0800   51.0000     .0894
   .0800   54.0000     .0918
   .0800   57.0000     .0933
   .0800   60.0000     .0938
   .1000     .0000     .0671
   .1000    3.0000     .0678
   .1000    6.0000     .0698
   .1000    9.0000     .0732
   .1000   12.0000     .0778
   .1000   15.0000     .0837
   .1000   18.0000     .0906
   .1000   21.0000     .0984
   .1000   24.0000     .1070
   .1000   27.0000     .1161
   .1000   30.0000     .1257
   .1000   33.0000     .1354
   .1000   36.0000     .1450
   .1000   39.0000     .1543
   .1000   42.0000     .1630
   .1000   45.0000     .1709
   .1000   48.0000     .1777
   .1000   51.0000     .1833
   .1000   54.0000     .1874
   .1000   57.0000     .1899
   .1000   60.0000     .1907
   .1200     .0000     .1621
   .1200    3.0000     .1630
   .1200    6.0000     .1657
   .1200    9.0000     .1702
   .1200   12.0000     .1763
   .1200   15.0000     .1841
   .1200   18.0000     .1932
   .1200   21.0000     .2036
   .1200   24.0000     .2151
   .1200   27.0000     .2274
   .1200   30.0000     .2404
   .1200   33.0000     .2536
   .1200   36.0000     .2668
   .1200   39.0000     .2797
   .1200   42.0000     .2919
   .1200   45.0000     .3030
   .1200   48.0000     .3128
   .1200   51.0000     .3207
   .1200   54.0000     .3266
   .1200   57.0000     .3303
   .1200   60.0000     .3315
   .1400     .0000     .3118
   .1400    3.0000     .3128
   .1400    6.0000     .3160
   .1400    9.0000     .3212
   .1400   12.0000     .3283
   .1400   15.0000     .3372
   .1400   18.0000     .3477
   .1400   21.0000     .3596
   .1400   24.0000     .3729
   .1400   27.0000     .3872
   .1400   30.0000     .4022
   .1400   33.0000     .4178
   .1400   36.0000     .4334
   .1400   39.0000     .4489
   .1400   42.0000     .4637
   .1400   45.0000     .4774
   .1400   48.0000     .4895
   .1400   51.0000     .4995
   .1400   54.0000     .5070
   .1400   57.0000     .5117
   .1400   60.0000     .5132
   .1600     .0000     .5215
   .1600    3.0000     .5226
   .1600    6.0000     .5258
   .1600    9.0000     .5310
   .1600   12.0000     .5381
   .1600   15.0000     .5470
   .1600   18.0000     .5575
   .1600   21.0000     .5693
   .1600   24.0000     .5823
   .1600   27.0000     .5963
   .1600   30.0000     .6110
   .1600   33.0000     .6264
   .1600   36.0000     .6421
   .1600   39.0000     .6578
   .1600   42.0000     .6732
   .1600   45.0000     .6878
   .1600   48.0000     .7009
   .1600   51.0000     .7121
   .1600   54.0000     .7205
   .1600   57.0000     .7259
   .1600   60.0000     .7277
   .1800     .0000     .7930
   .1800    3.0000     .7940
   .1800    6.0000     .7967
   .1800    9.0000     .8012
   .1800   12.0000     .8073
   .1800   15.0000     .8146
   .1800   18.0000     .8230
   .1800   21.0000     .8321
   .1800   24.0000     .8420
   .1800   27.0000     .8523
   .1800   30.0000     .8632
   .1800   33.0000     .8747
   .1800   36.0000     .8867
   .1800   39.0000     .8992
   .1800   42.0000     .9120
   .1800   45.0000     .9248
   .1800   48.0000     .9369
   .1800   51.0000     .9475
   .1800   54.0000     .9559
   .1800   57.0000     .9613
   .1800   60.0000     .9632
   .2000     .0000    1.1259
   .2000    3.0000    1.1265
   .2000    6.0000    1.1283
   .2000    9.0000    1.1310
   .2000   12.0000    1.1344
   .2000   15.0000    1.1381
   .2000   18.0000    1.1419
   .2000   21.0000    1.1454
   .2000   24.0000    1.1486
   .2000   27.0000    1.1513
   .2000   30.0000    1.1540
   .2000   33.0000    1.1569
   .2000   36.0000    1.1605
   .2000   39.0000    1.1652
   .2000   42.0000    1.1713
   .2000   45.0000    1.1787
   .2000   48.0000    1.1868
   .2000   51.0000    1.1949
   .2000   54.0000    1.2019
   .2000   57.0000    1.2066
   .2000   60.0000    1.2082
   .2200     .0000    1.5188
   .2200    3.0000    1.5188
   .2200    6.0000    1.5186
   .2200    9.0000    1.5181
   .2200   12.0000    1.5168
   .2200   15.0000    1.5145
   .2200   18.0000    1.5107
   .2200   21.0000    1.5051
   .2200   24.0000    1.4977
   .2200   27.0000    1.4886
   .2200   30.0000    1.4782
   .2200   33.0000    1.4676
   .2200   36.0000    1.4577
   .2200   39.0000    1.4497
   .2200   42.0000    1.4446
   .2200   45.0000    1.4427
   .2200   48.0000    1.4438
   .2200   51.0000    1.4472
   .2200   54.0000    1.4512
   .2200   57.0000    1.4545
   .2200   60.0000    1.4557
   .2400     .0000    1.9691
   .2400    3.0000    1.9679
   .2400    6.0000    1.9645
   .2400    9.0000    1.9587
   .2400   12.0000    1.9502
   .2400   15.0000    1.9389
   .2400   18.0000    1.9243
   .2400   21.0000    1.9063
   .2400   24.0000    1.8846
   .2400   27.0000    1.8596
   .2400   30.0000    1.8321
   .2400   33.0000    1.8035
   .2400   36.0000    1.7757
   .2400   39.0000    1.7506
   .2400   42.0000    1.7301
   .2400   45.0000    1.7156
   .2400   48.0000    1.7071
   .2400   51.0000    1.7038
   .2400   54.0000    1.7038
   .2400   57.0000    1.7050
   .2400   60.0000    1.7056
   .2600     .0000    2.4714
   .2600    3.0000    2.4687
   .2600    6.0000    2.4603
   .2600    9.0000    2.4466
   .2600   12.0000    2.4278
   .2600   15.0000    2.4042
   .2600   18.0000    2.3756
   .2600   21.0000    2.3421
   .2600   24.0000    2.3035
   .2600   27.0000    2.2601
   .2600   30.0000    2.2129
   .2600   33.0000    2.1637
   .2600   36.0000    2.1152
   .2600   39.0000    2.0703
   .2600   42.0000    2.0321
   .2600   45.0000    2.0027
   .2600   48.0000    1.9830
   .2600   51.0000    1.9722
   .2600   54.0000    1.9678
   .2600   57.0000    1.9669
   .2600   60.0000    1.9669
   .2800     .0000    3.0177
   .2800    3.0000    3.0125
   .2800    6.0000    2.9972
   .2800    9.0000    2.9727
   .2800   12.0000    2.9403
   .2800   15.0000    2.9011
   .2800   18.0000    2.8560
   .2800   21.0000    2.8052
   .2800   24.0000    2.7487
   .2800   27.0000    2.6867
   .2800   30.0000    2.6200
   .2800   33.0000    2.5504
   .2800   36.0000    2.4812
   .2800   39.0000    2.4163
   .2800   42.0000    2.3599
   .2800   45.0000    2.3154
   .2800   48.0000    2.2844
   .2800   51.0000    2.2661
   .2800   54.0000    2.2577
   .2800   57.0000    2.2552
   .2800   60.0000    2.2547
   .3000     .0000    3.5982
   .3000    3.0000    3.5899
   .3000    6.0000    3.5656
   .3000    9.0000    3.5275
   .3000   12.0000    3.4784
   .3000   15.0000    3.4212
   .3000   18.0000    3.3580
   .3000   21.0000    3.2899
   .3000   24.0000    3.2169
   .3000   27.0000    3.1388
   .3000   30.0000    3.0556
   .3000   33.0000    2.9689
   .3000   36.0000    2.8819
   .3000   39.0000    2.7993
   .3000   42.0000    2.7266
   .3000   45.0000    2.6683
   .3000   48.0000    2.6270
   .3000   51.0000    2.6024
   .3000   54.0000    2.5910
   .3000   57.0000    2.5875
   .3000   60.0000    2.5870
   .3200     .0000    4.2077
   .3200    3.0000    4.1957
   .3200    6.0000    4.1607
   .3200    9.0000    4.1066
   .3200   12.0000    4.0387
   .3200   15.0000    3.9620
   .3200   18.0000    3.8804
   .3200   21.0000    3.7962
   .3200   24.0000    3.7096
   .3200   27.0000    3.6197
   .3200   30.0000    3.5256
   .3200   33.0000    3.4273
   .3200   36.0000    3.3277
   .3200   39.0000    3.2318
   .3200   42.0000    3.1459
   .3200   45.0000    3.0762
   .3200   48.0000    3.0266
   .3200   51.0000    2.9970
   .3200   54.0000    2.9839
   .3200   57.0000    2.9804
   .3200   60.0000    2.9800
   .3400     .0000    4.8505
   .3400    3.0000    4.8343
   .3400    6.0000    4.7873
   .3400    9.0000    4.7158
   .3400   12.0000    4.6275
   .3400   15.0000    4.5302
   .3400   18.0000    4.4303
   .3400   21.0000    4.3312
   .3400   24.0000    4.2339
   .3400   27.0000    4.1369
   .3400   30.0000    4.0376
   .3400   33.0000    3.9343
   .3400   36.0000    3.8285
   .3400   39.0000    3.7246
   .3400   42.0000    3.6297
   .3400   45.0000    3.5516
   .3400   48.0000    3.4956
   .3400   51.0000    3.4627
   .3400   54.0000    3.4488
   .3400   57.0000    3.4460
   .3400   60.0000    3.4462
   .3600     .0000    5.5383
   .3600    3.0000    5.5176
   .3600    6.0000    5.4581
   .3600    9.0000    5.3679
   .3600   12.0000    5.2580
   .3600   15.0000    5.1392
   .3600   18.0000    5.0201
   .3600   21.0000    4.9064
   .3600   24.0000    4.7997
   .3600   27.0000    4.6984
   .3600   30.0000    4.5985
   .3600   33.0000    4.4963
   .3600   36.0000    4.3907
   .3600   39.0000    4.2847
   .3600   42.0000    4.1857
   .3600   45.0000    4.1026
   .3600   48.0000    4.0424
   .3600   51.0000    4.0074
   .3600   54.0000    3.9937
   .3600   57.0000    3.9922
   .3600   60.0000    3.9930
   .3800     .0000    6.2798
   .3800    3.0000    6.2547
   .3800    6.0000    6.1827
   .3800    9.0000    6.0741
   .3800   12.0000    5.9422
   .3800   15.0000    5.8010
   .3800   18.0000    5.6616
   .3800   21.0000    5.5318
   .3800   24.0000    5.4149
   .3800   27.0000    5.3099
   .3800   30.0000    5.2121
   .3800   33.0000    5.1155
   .3800   36.0000    5.0160
   .3800   39.0000    4.9142
   .3800   42.0000    4.8164
   .3800   45.0000    4.7323
   .3800   48.0000    4.6703
   .3800   51.0000    4.6345
   .3800   54.0000    4.6214
   .3800   57.0000    4.6213
   .3800   60.0000    4.6228
   .4000     .0000    7.0676
   .4000    3.0000    7.0391
   .4000    6.0000    6.9571
   .4000    9.0000    6.8330
   .4000   12.0000    6.6818
   .4000   15.0000    6.5194
   .4000   18.0000    6.3593
   .4000   21.0000    6.2118
   .4000   24.0000    6.0828
   .4000   27.0000    5.9728
   .4000   30.0000    5.8774
   .4000   33.0000    5.7893
   .4000   36.0000    5.7009
   .4000   39.0000    5.6096
   .4000   42.0000    5.5191
   .4000   45.0000    5.4385
   .4000   48.0000    5.3779
   .4000   51.0000    5.3425
   .4000   54.0000    5.3301
   .4000   57.0000    5.3309
   .4000   60.0000    5.3329
   .4200     .0000    7.8771
   .4200    3.0000    7.8473
   .4200    6.0000    7.7609
   .4200    9.0000    7.6286
   .4200   12.0000    7.4649
   .4200   15.0000    7.2864
   .4200   18.0000    7.1082
   .4200   21.0000    6.9433
   .4200   24.0000    6.8007
   .4200   27.0000    6.6838
   .4200   30.0000    6.5897
   .4200   33.0000    6.5109
   .4200   36.0000    6.4375
   .4200   39.0000    6.3624
   .4200   42.0000    6.2856
   .4200   45.0000    6.2145
   .4200   48.0000    6.1590
   .4200   51.0000    6.1256
   .4200   54.0000    6.1135
   .4200   57.0000    6.1141
   .4200   60.0000    6.1159
   .4400     .0000    8.6843
   .4400    3.0000    8.6557
   .4400    6.0000    8.5717
   .4400    9.0000    8.4403
   .4400   12.0000    8.2739
   .4400   15.0000    8.0872
   .4400   18.0000    7.8967
   .4400   21.0000    7.7175
   .4400   24.0000    7.5618
   .4400   27.0000    7.4366
   .4400   30.0000    7.3423
   .4400   33.0000    7.2722
   .4400   36.0000    7.2154
   .4400   39.0000    7.1610
   .4400   42.0000    7.1044
   .4400   45.0000    7.0491
   .4400   48.0000    7.0033
   .4400   51.0000    6.9739
   .4400   54.0000    6.9613
   .4400   57.0000    6.9595
   .4400   60.0000    6.9601
   .4600     .0000    9.4875
   .4600    3.0000    9.4618
   .4600    6.0000    9.3851
   .4600    9.0000    9.2621
   .4600   12.0000    9.1010
   .4600   15.0000    8.9143
   .4600   18.0000    8.7175
   .4600   21.0000    8.5277
   .4600   24.0000    8.3604
   .4600   27.0000    8.2265
   .4600   30.0000    8.1299
   .4600   33.0000    8.0665
   .4600   36.0000    8.0256
   .4600   39.0000    7.9940
   .4600   42.0000    7.9622
   .4600   45.0000    7.9286
   .4600   48.0000    7.8977
   .4600   51.0000    7.8744
   .4600   54.0000    7.8600
   .4600   57.0000    7.8527
   .4600   60.0000    7.8504
   .4800     .0000   10.3091
   .4800    3.0000   10.2869
   .4800    6.0000   10.2194
   .4800    9.0000   10.1081
   .4800   12.0000    9.9575
   .4800   15.0000    9.7760
   .4800   18.0000    9.5774
   .4800   21.0000    9.3795
   .4800   24.0000    9.2007
   .4800   27.0000    9.0562
   .4800   30.0000    8.9540
   .4800   33.0000    8.8931
   .4800   36.0000    8.8642
   .4800   39.0000    8.8534
   .4800   42.0000    8.8478
   .4800   45.0000    8.8400
   .4800   48.0000    8.8283
   .4800   51.0000    8.8129
   .4800   54.0000    8.7947
   .4800   57.0000    8.7779
   .4800   60.0000    8.7705
   .5000     .0000   11.1816
   .5000    3.0000   11.1628
   .5000    6.0000   11.1046
   .5000    9.0000   11.0059
   .5000   12.0000   10.8675
   .5000   15.0000   10.6941
   .5000   18.0000   10.4961
   .5000   21.0000   10.2907
   .5000   24.0000   10.0986
   .5000   27.0000    9.9392
   .5000   30.0000    9.8254
   .5000   33.0000    9.7599
   .5000   36.0000    9.7356
   .5000   39.0000    9.7390
   .5000   42.0000    9.7558
   .5000   45.0000    9.7736
   .5000   48.0000    9.7830
   .5000   51.0000    9.7762
   .5000   54.0000    9.7511
   .5000   57.0000    9.7201
   .5000   60.0000    9.7055
