0.136,-0.009,3
,,
0,0,0.2882
0,3,0.2882
0,6,0.2882
0,9,0.2882
0,12,0.2882
0,15,0.2882
0,18,0.2881
0,21,0.2881
0,24,0.2881
0,27,0.2881
0,30,0.2881
0,33,0.2881
0,36,0.2881
0,39,0.2881
0,42,0.2881
0,45,0.2882
0,48,0.2882
0,51,0.2882
0,54,0.2882
0,57,0.2882
0,60,0.2882
0.02,0,0.2777
0.02,3,0.2777
0.02,6,0.2777
0.02,9,0.2777
0.02,12,0.2778
0.02,15,0.2779
0.02,18,0.2781
0.02,21,0.2783
0.02,24,0.2785
0.02,27,0.2787
0.02,30,0.2789
0.02,33,0.2791
0.02,36,0.2794
0.02,39,0.2796
0.02,42,0.2798
0.02,45,0.2801
0.02,48,0.2802
0.02,51,0.2804
0.02,54,0.2805
0.02,57,0.2806
0.02,60,0.2807
0.04,0,0.2461
0.04,3,0.2461
0.04,6,0.2463
0.04,9,0.2466
0.04,12,0.2471
0.04,15,0.2477
0.04,18,0.2484
0.04,21,0.2493
0.04,24,0.2502
0.04,27,0.2513
0.04,30,0.2523
0.04,33,0.2534
0.04,36,0.2545
0.04,39,0.2555
0.04,42,0.2564
0.04,45,0.2573
0.04,48,0.2581
0.04,51,0.2587
0.04,54,0.2592
0.04,57,0.2596
0.04,60,0.2597
0.06,0,0.194
0.06,3,0.1941
0.06,6,0.1946
0.06,9,0.1955
0.06,12,0.1968
0.06,15,0.1984
0.06,18,0.2003
0.06,21,0.2026
0.06,24,0.205
0.06,27,0.2077
0.06,30,0.2105
0.06,33,0.2133
0.06,36,0.2161
0.06,39,0.2188
0.06,42,0.2213
0.06,45,0.2236
0.06,48,0.2257
0.06,51,0.2273
0.06,54,0.2286
0.06,57,0.2294
0.06,60,0.2298
0.08,0,0.1284
0.08,3,0.1285
0.08,6,0.1294
0.08,9,0.131
0.08,12,0.1332
0.08,15,0.1361
0.08,18,0.1396
0.08,21,0.1436
0.08,24,0.1481
0.08,27,0.1529
0.08,30,0.1581
0.08,33,0.1634
0.08,36,0.1687
0.08,39,0.1739
0.08,42,0.1789
0.08,45,0.1835
0.08,48,0.1874
0.08,51,0.1907
0.08,54,0.1932
0.08,57,0.1948
0.08,60,0.1955
0.1,0,0.0621
0.1,3,0.0623
0.1,6,0.0634
0.1,9,0.0654
0.1,12,0.0683
0.1,15,0.072
0.1,18,0.0766
0.1,21,0.0821
0.1,24,0.0883
0.1,27,0.0953
0.1,30,0.1028
0.1,33,0.1107
0.1,36,0.119
0.1,39,0.1273
0.1,42,0.1353
0.1,45,0.1428
0.1,48,0.1495
0.1,51,0.1551
0.1,54,0.1594
0.1,57,0.1621
0.1,60,0.1632
0.12,0,0.013
0.12,3,0.0131
0.12,6,0.014
0.12,9,0.0156
0.12,12,0.0182
0.12,15,0.0218
0.12,18,0.0264
0.12,21,0.0322
0.12,24,0.0391
0.12,27,0.0472
0.12,30,0.0564
0.12,33,0.0665
0.12,36,0.0774
0.12,39,0.0888
0.12,42,0.1001
0.12,45,0.111
0.12,48,0.1209
0.12,51,0.1294
0.12,54,0.1359
0.12,57,0.1401
0.12,60,0.1417
0.14,0,0.0002
0.14,3,0
0.14,6,0.0001
0.14,9,0.0005
0.14,12,0.0016
0.14,15,0.0035
0.14,18,0.0064
0.14,21,0.0107
0.14,24,0.0166
0.14,27,0.0242
0.14,30,0.0336
0.14,33,0.0447
0.14,36,0.0573
0.14,39,0.0712
0.14,42,0.0856
0.14,45,0.1001
0.14,48,0.1136
0.14,51,0.1255
0.14,54,0.1348
0.14,57,0.1409
0.14,60,0.1431
0.16,0,0.0426
0.16,3,0.0418
0.16,6,0.0404
0.16,9,0.0385
0.16,12,0.0365
0.16,15,0.0349
0.16,18,0.0342
0.16,21,0.035
0.16,24,0.0377
0.16,27,0.0426
0.16,30,0.0502
0.16,33,0.0606
0.16,36,0.0737
0.16,39,0.0891
0.16,42,0.1061
0.16,45,0.124
0.16,48,0.1414
0.16,51,0.1571
0.16,54,0.1697
0.16,57,0.1779
0.16,60,0.181
0.18,0,0.1567
0.18,3,0.155
0.18,6,0.1513
0.18,9,0.1458
0.18,12,0.1392
0.18,15,0.1323
0.18,18,0.1258
0.18,21,0.1207
0.18,24,0.1179
0.18,27,0.118
0.18,30,0.1217
0.18,33,0.1293
0.18,36,0.1411
0.18,39,0.1569
0.18,42,0.1758
0.18,45,0.1968
0.18,48,0.2182
0.18,51,0.238
0.18,54,0.2543
0.18,57,0.2652
0.18,60,0.2693
0.2,0,0.3549
0.2,3,0.3521
0.2,6,0.3453
0.2,9,0.3351
0.2,12,0.3223
0.2,15,0.3081
0.2,18,0.2938
0.2,21,0.2806
0.2,24,0.2699
0.2,27,0.2628
0.2,30,0.2604
0.2,33,0.2635
0.2,36,0.2724
0.2,39,0.2872
0.2,42,0.3072
0.2,45,0.331
0.2,48,0.3565
0.2,51,0.3811
0.2,54,0.4017
0.2,57,0.4156
0.2,60,0.4209
0.22,0,0.643
0.22,3,0.639
0.22,6,0.6287
0.22,9,0.6128
0.22,12,0.5927
0.22,15,0.5698
0.22,18,0.5459
0.22,21,0.5227
0.22,24,0.5022
0.22,27,0.486
0.22,30,0.4755
0.22,33,0.4722
0.22,36,0.4769
0.22,39,0.4897
0.22,42,0.5102
0.22,45,0.5368
0.22,48,0.5667
0.22,51,0.5965
0.22,54,0.622
0.22,57,0.6397
0.22,60,0.6463
0.24,0,1.0176
0.24,3,1.0124
0.24,6,0.9987
0.24,9,0.9774
0.24,12,0.95
0.24,15,0.9183
0.24,18,0.8843
0.24,21,0.8504
0.24,24,0.8188
0.24,27,0.7919
0.24,30,0.772
0.24,33,0.761
0.24,36,0.7604
0.24,39,0.7708
0.24,42,0.7916
0.24,45,0.821
0.24,48,0.8559
0.24,51,0.8918
0.24,54,0.9232
0.24,57,0.945
0.24,60,0.9533
0.26,0,1.4629
0.26,3,1.457
0.26,6,1.4413
0.26,9,1.4167
0.26,12,1.3846
0.26,15,1.3464
0.26,18,1.3044
0.26,21,1.261
0.26,24,1.2191
0.26,27,1.1816
0.26,30,1.1517
0.26,33,1.1324
0.26,36,1.1258
0.26,39,1.1332
0.26,42,1.1543
0.26,45,1.187
0.26,48,1.2276
0.26,51,1.2705
0.26,54,1.3087
0.26,57,1.3356
0.26,60,1.3459
0.28,0,1.952
0.28,3,1.9464
0.28,6,1.932
0.28,9,1.9091
0.28,12,1.878
0.28,15,1.8397
0.28,18,1.7955
0.28,21,1.7474
0.28,24,1.6984
0.28,27,1.6524
0.28,30,1.6134
0.28,33,1.5857
0.28,36,1.5728
0.28,39,1.5768
0.28,42,1.5979
0.28,45,1.6342
0.28,48,1.6811
0.28,51,1.7319
0.28,54,1.778
0.28,57,1.8107
0.28,60,1.8232
0.3,0,2.4582
0.3,3,2.4544
0.3,6,2.4455
0.3,9,2.4308
0.3,12,2.4094
0.3,15,2.3804
0.3,18,2.3434
0.3,21,2.2992
0.3,24,2.2501
0.3,27,2.1999
0.3,30,2.1542
0.3,33,2.1188
0.3,36,2.0989
0.3,39,2.0984
0.3,42,2.1186
0.3,45,2.1578
0.3,48,2.2109
0.3,51,2.2701
0.3,54,2.3248
0.3,57,2.364
0.3,60,2.379
0.32,0,2.9715
0.32,3,2.9707
0.32,6,2.9707
0.32,9,2.97
0.32,12,2.9661
0.32,15,2.9561
0.32,18,2.9372
0.32,21,2.9074
0.32,24,2.8671
0.32,27,2.8194
0.32,30,2.7705
0.32,33,2.7281
0.32,36,2.6999
0.32,39,2.6922
0.32,42,2.7084
0.32,45,2.7478
0.32,48,2.8055
0.32,51,2.8723
0.32,54,2.9356
0.32,57,2.9817
0.32,60,2.9995
0.34,0,3.5036
0.34,3,3.5062
0.34,6,3.5166
0.34,9,3.5326
0.34,12,3.5506
0.34,15,3.5658
0.34,18,3.5729
0.34,21,3.5669
0.34,24,3.5446
0.34,27,3.5068
0.34,30,3.4586
0.34,33,3.4092
0.34,36,3.3695
0.34,39,3.3493
0.34,42,3.3553
0.34,45,3.3891
0.34,48,3.4468
0.34,51,3.5183
0.34,54,3.589
0.34,57,3.6417
0.34,60,3.6623
0.36,0,4.0777
0.36,3,4.0835
0.36,6,4.1041
0.36,9,4.1365
0.36,12,4.1763
0.36,15,4.2177
0.36,18,4.2538
0.36,21,4.2766
0.36,24,4.2791
0.36,27,4.2573
0.36,30,4.2133
0.36,33,4.1562
0.36,36,4.0995
0.36,39,4.0581
0.36,42,4.0436
0.36,45,4.062
0.36,48,4.1116
0.36,51,4.1824
0.36,54,4.2574
0.36,57,4.3155
0.36,60,4.3385
0.38,0,4.7182
0.38,3,4.7268
0.38,6,4.7559
0.38,9,4.8022
0.38,12,4.8607
0.38,15,4.9247
0.38,18,4.9865
0.38,21,5.037
0.38,24,5.0656
0.38,27,5.0631
0.38,30,5.0255
0.38,33,4.9587
0.38,36,4.8782
0.38,39,4.8046
0.38,42,4.7568
0.38,45,4.7472
0.38,48,4.7782
0.38,51,4.8407
0.38,54,4.9155
0.38,57,4.9769
0.38,60,5.0019
0.4,0,5.4473
0.4,3,5.4576
0.4,6,5.4925
0.4,9,5.5483
0.4,12,5.6194
0.4,15,5.6988
0.4,18,5.7782
0.4,21,5.848
0.4,24,5.8966
0.4,27,5.9103
0.4,30,5.8783
0.4,33,5.8
0.4,36,5.6901
0.4,39,5.5747
0.4,42,5.482
0.4,45,5.4327
0.4,48,5.4348
0.4,51,5.4814
0.4,54,5.5511
0.4,57,5.6135
0.4,60,5.6399
0.42,0,6.2861
0.42,3,6.2966
0.42,6,6.3327
0.42,9,6.391
0.42,12,6.4657
0.42,15,6.5495
0.42,18,6.6339
0.42,21,6.7091
0.42,24,6.7635
0.42,27,6.7822
0.42,30,6.7497
0.42,33,6.6579
0.42,36,6.5172
0.42,39,6.3567
0.42,42,6.2132
0.42,45,6.1171
0.42,48,6.0835
0.42,51,6.1085
0.42,54,6.1698
0.42,57,6.2316
0.42,60,6.2589
0.44,0,7.2543
0.44,3,7.2629
0.44,6,7.294
0.44,9,7.3448
0.44,12,7.4102
0.44,15,7.4836
0.44,18,7.5567
0.44,21,7.6196
0.44,24,7.6608
0.44,27,7.6666
0.44,30,7.6214
0.44,33,7.5133
0.44,36,7.3455
0.44,39,7.1447
0.44,42,6.953
0.44,45,6.8096
0.44,48,6.7379
0.44,51,6.739
0.44,54,6.7903
0.44,57,6.8514
0.44,60,6.8799
0.46,0,8.3677
0.46,3,8.3718
0.46,6,8.3906
0.46,9,8.422
0.46,12,8.4626
0.46,15,8.5078
0.46,18,8.5507
0.46,21,8.582
0.46,24,8.5905
0.46,27,8.5641
0.46,30,8.4913
0.46,33,8.3617
0.46,36,8.1729
0.46,39,7.9429
0.46,42,7.7119
0.46,45,7.526
0.46,48,7.4179
0.46,51,7.3953
0.46,54,7.4371
0.46,57,7.4982
0.46,60,7.5283
0.48,0,9.6356
0.48,3,9.6326
0.48,6,9.6313
0.48,9,9.6309
0.48,12,9.6304
0.48,15,9.6284
0.48,18,9.6215
0.48,21,9.6025
0.48,24,9.5612
0.48,27,9.4873
0.48,30,9.3739
0.48,33,9.2165
0.48,36,9.0111
0.48,39,8.7636
0.48,42,8.5049
0.48,45,8.2843
0.48,48,8.1436
0.48,51,8.0991
0.48,54,8.1328
0.48,57,8.1953
0.48,60,8.2278
0.5,0,11.0574
0.5,3,11.0447
0.5,6,11.0161
0.5,9,10.9727
0.5,12,10.9166
0.5,15,10.8505
0.5,18,10.7756
0.5,21,10.6894
0.5,24,10.5843
0.5,27,10.4523
0.5,30,10.2901
0.5,33,10.0991
0.5,36,9.8774
0.5,39,9.6207
0.5,42,9.3457
0.5,45,9.0993
0.5,48,8.9316
0.5,51,8.8684
0.5,54,8.8963
0.5,57,8.9623
0.5,60,8.998
