0.143,0.006,0
,,
0,0,0.5487
0,3,0.5487
0,6,0.5487
0,9,0.5487
0,12,0.5487
0,15,0.5487
0,18,0.5487
0,21,0.5487
0,24,0.5487
0,27,0.5487
0,30,0.5487
0,33,0.5487
0,36,0.5487
0,39,0.5487
0,42,0.5487
0,45,0.5487
0,48,0.5487
0,51,0.5487
0,54,0.5487
0,57,0.5487
0,60,0.5487
0.02,0,0.5308
0.02,3,0.5308
0.02,6,0.5309
0.02,9,0.531
0.02,12,0.5312
0.02,15,0.5315
0.02,18,0.5318
0.02,21,0.5321
0.02,24,0.5325
0.02,27,0.5328
0.02,30,0.5332
0.02,33,0.5336
0.02,36,0.534
0.02,39,0.5344
0.02,42,0.5347
0.02,45,0.535
0.02,48,0.5353
0.02,51,0.5355
0.02,54,0.5357
0.02,57,0.5358
0.02,60,0.5359
0.04,0,0.4731
0.04,3,0.4733
0.04,6,0.4739
0.04,9,0.4749
0.04,12,0.4763
0.04,15,0.4781
0.04,18,0.4801
0.04,21,0.4824
0.04,24,0.4849
0.04,27,0.4876
0.04,30,0.4903
0.04,33,0.493
0.04,36,0.4957
0.04,39,0.4982
0.04,42,0.5006
0.04,45,0.5026
0.04,48,0.5044
0.04,51,0.5059
0.04,54,0.507
0.04,57,0.5076
0.04,60,0.5079
0.06,0,0.3774
0.06,3,0.378
0.06,6,0.3799
0.06,9,0.3829
0.06,12,0.387
0.06,15,0.3922
0.06,18,0.3983
0.06,21,0.4052
0.06,24,0.4127
0.06,27,0.4206
0.06,30,0.4287
0.06,33,0.4369
0.06,36,0.4449
0.06,39,0.4525
0.06,42,0.4596
0.06,45,0.466
0.06,48,0.4714
0.06,51,0.4758
0.06,54,0.479
0.06,57,0.481
0.06,60,0.4817
0.08,0,0.2578
0.08,3,0.259
0.08,6,0.2626
0.08,9,0.2687
0.08,12,0.2769
0.08,15,0.2873
0.08,18,0.2995
0.08,21,0.3134
0.08,24,0.3285
0.08,27,0.3446
0.08,30,0.3612
0.08,33,0.3781
0.08,36,0.3946
0.08,39,0.4105
0.08,42,0.4253
0.08,45,0.4386
0.08,48,0.4501
0.08,51,0.4594
0.08,54,0.4662
0.08,57,0.4704
0.08,60,0.4719
0.1,0,0.1377
0.1,3,0.1395
0.1,6,0.1451
0.1,9,0.1544
0.1,12,0.1673
0.1,15,0.1835
0.1,18,0.2027
0.1,21,0.2246
0.1,24,0.2488
0.1,27,0.2748
0.1,30,0.3019
0.1,33,0.3296
0.1,36,0.3572
0.1,39,0.3838
0.1,42,0.4088
0.1,45,0.4314
0.1,48,0.451
0.1,51,0.467
0.1,54,0.4788
0.1,57,0.486
0.1,60,0.4885
0.12,0,0.0439
0.12,3,0.0462
0.12,6,0.0534
0.12,9,0.0653
0.12,12,0.0819
0.12,15,0.1031
0.12,18,0.1285
0.12,21,0.1579
0.12,24,0.1906
0.12,27,0.2264
0.12,30,0.2642
0.12,33,0.3034
0.12,36,0.3428
0.12,39,0.3813
0.12,42,0.4179
0.12,45,0.4513
0.12,48,0.4804
0.12,51,0.5042
0.12,54,0.5219
0.12,57,0.5328
0.12,60,0.5366
0.14,0,0
0.14,3,0.0026
0.14,6,0.0104
0.14,9,0.0236
0.14,12,0.0421
0.14,15,0.0661
0.14,18,0.0954
0.14,21,0.1298
0.14,24,0.169
0.14,27,0.2125
0.14,30,0.2594
0.14,33,0.3088
0.14,36,0.3593
0.14,39,0.4093
0.14,42,0.4574
0.14,45,0.5017
0.14,48,0.5406
0.14,51,0.5727
0.14,54,0.5965
0.14,57,0.6113
0.14,60,0.6163
0.16,0,0.0245
0.16,3,0.0269
0.16,6,0.0343
0.16,9,0.0468
0.16,12,0.0647
0.16,15,0.0885
0.16,18,0.1183
0.16,21,0.1542
0.16,24,0.1962
0.16,27,0.244
0.16,30,0.2967
0.16,33,0.3534
0.16,36,0.4124
0.16,39,0.472
0.16,42,0.5299
0.16,45,0.5839
0.16,48,0.6317
0.16,51,0.6712
0.16,54,0.7008
0.16,57,0.7191
0.16,60,0.7253
0.18,0,0.1299
0.18,3,0.1317
0.18,6,0.1375
0.18,9,0.1476
0.18,12,0.1624
0.18,15,0.1827
0.18,18,0.2092
0.18,21,0.2423
0.18,24,0.2825
0.18,27,0.3299
0.18,30,0.3839
0.18,33,0.4436
0.18,36,0.5073
0.18,39,0.5729
0.18,42,0.6377
0.18,45,0.6988
0.18,48,0.7533
0.18,51,0.7985
0.18,54,0.8324
0.18,57,0.8533
0.18,60,0.8604
0.2,0,0.3236
0.2,3,0.3246
0.2,6,0.328
0.2,9,0.3341
0.2,12,0.3436
0.2,15,0.3576
0.2,18,0.377
0.2,21,0.4031
0.2,24,0.4367
0.2,27,0.4785
0.2,30,0.5285
0.2,33,0.586
0.2,36,0.6496
0.2,39,0.7167
0.2,42,0.7843
0.2,45,0.8489
0.2,48,0.9069
0.2,51,0.9552
0.2,54,0.9913
0.2,57,1.0136
0.2,60,1.0212
0.22,0,0.609
0.22,3,0.609
0.22,6,0.6094
0.22,9,0.6105
0.22,12,0.6133
0.22,15,0.6186
0.22,18,0.6281
0.22,21,0.6434
0.22,24,0.666
0.22,27,0.6972
0.22,30,0.7379
0.22,33,0.7879
0.22,36,0.846
0.22,39,0.9098
0.22,42,0.9757
0.22,45,1.0397
0.22,48,1.0976
0.22,51,1.1458
0.22,54,1.1818
0.22,57,1.204
0.22,60,1.2114
0.24,0,0.9851
0.24,3,0.9841
0.24,6,0.9812
0.24,9,0.9769
0.24,12,0.9719
0.24,15,0.9675
0.24,18,0.9651
0.24,21,0.9669
0.24,24,0.975
0.24,27,0.9916
0.24,30,1.0184
0.24,33,1.0561
0.24,36,1.1041
0.24,39,1.16
0.24,42,1.2202
0.24,45,1.2797
0.24,48,1.3341
0.24,51,1.3793
0.24,54,1.4128
0.24,57,1.4333
0.24,60,1.4402
0.26,0,1.4461
0.26,3,1.4439
0.26,6,1.4377
0.26,9,1.4276
0.26,12,1.4146
0.26,15,1.3999
0.26,18,1.3851
0.26,21,1.3725
0.26,24,1.3646
0.26,27,1.3645
0.26,30,1.3748
0.26,33,1.3971
0.26,36,1.4317
0.26,39,1.4766
0.26,42,1.5278
0.26,45,1.5801
0.26,48,1.6282
0.26,51,1.6679
0.26,54,1.6971
0.26,57,1.7147
0.26,60,1.7206
0.28,0,1.9789
0.28,3,1.9757
0.28,6,1.9658
0.28,9,1.9502
0.28,12,1.9297
0.28,15,1.9059
0.28,18,1.8802
0.28,21,1.8548
0.28,24,1.8324
0.28,27,1.8164
0.28,30,1.8102
0.28,33,1.8165
0.28,36,1.8365
0.28,39,1.8689
0.28,42,1.9096
0.28,45,1.953
0.28,48,1.993
0.28,51,2.0257
0.28,54,2.0492
0.28,57,2.0633
0.28,60,2.0679
0.3,0,2.5651
0.3,3,2.5607
0.3,6,2.5476
0.3,9,2.5272
0.3,12,2.5013
0.3,15,2.4714
0.3,18,2.439
0.3,21,2.4058
0.3,24,2.3738
0.3,27,2.3462
0.3,30,2.3267
0.3,33,2.3191
0.3,36,2.3256
0.3,39,2.3459
0.3,42,2.3759
0.3,45,2.4096
0.3,48,2.4407
0.3,51,2.4655
0.3,54,2.4827
0.3,57,2.4928
0.3,60,2.496
0.32,0,3.1865
0.32,3,3.1813
0.32,6,3.1659
0.32,9,3.1428
0.32,12,3.1149
0.32,15,3.0842
0.32,18,3.052
0.32,21,3.0186
0.32,24,2.985
0.32,27,2.953
0.32,30,2.9261
0.32,33,2.9087
0.32,36,2.9045
0.32,39,2.9141
0.32,42,2.9344
0.32,45,2.9587
0.32,48,2.9808
0.32,51,2.9973
0.32,54,3.008
0.32,57,3.014
0.32,60,3.0159
0.34,0,3.8352
0.34,3,3.8296
0.34,6,3.8133
0.34,9,3.7901
0.34,12,3.7643
0.34,15,3.7388
0.34,18,3.7142
0.34,21,3.6895
0.34,24,3.6633
0.34,27,3.6353
0.34,30,3.6081
0.34,33,3.5862
0.34,36,3.5748
0.34,39,3.5762
0.34,42,3.5882
0.34,45,3.6043
0.34,48,3.6179
0.34,51,3.6262
0.34,54,3.6305
0.34,57,3.6325
0.34,60,3.6329
0.36,0,4.5172
0.36,3,4.5114
0.36,6,4.4953
0.36,9,4.474
0.36,12,4.4532
0.36,15,4.437
0.36,18,4.4259
0.36,21,4.4169
0.36,24,4.4059
0.36,27,4.3897
0.36,30,4.3688
0.36,33,4.3478
0.36,36,4.333
0.36,39,4.3289
0.36,42,4.3348
0.36,45,4.3442
0.36,48,4.3503
0.36,51,4.3509
0.36,54,4.3488
0.36,57,4.3468
0.36,60,4.3459
0.38,0,5.2433
0.38,3,5.2379
0.38,6,5.2229
0.38,9,5.2047
0.38,12,5.1906
0.38,15,5.1853
0.38,18,5.1898
0.38,21,5.2
0.38,24,5.2087
0.38,27,5.2093
0.38,30,5.1994
0.38,33,5.1831
0.38,36,5.1681
0.38,39,5.1612
0.38,42,5.1633
0.38,45,5.1682
0.38,48,5.1681
0.38,51,5.1615
0.38,54,5.1527
0.38,57,5.1464
0.38,60,5.144
0.4,0,6.0167
0.4,3,6.0126
0.4,6,6.0011
0.4,9,5.9885
0.4,12,5.9827
0.4,15,5.989
0.4,18,6.0088
0.4,21,6.0377
0.4,24,6.0663
0.4,27,6.0843
0.4,30,6.0862
0.4,33,6.0752
0.4,36,6.0608
0.4,39,6.0525
0.4,42,6.053
0.4,45,6.0555
0.4,48,6.0508
0.4,51,6.0369
0.4,54,6.0207
0.4,57,6.0092
0.4,60,6.0049
0.42,0,6.8303
0.42,3,6.8291
0.42,6,6.8252
0.42,9,6.8235
0.42,12,6.8299
0.42,15,6.8495
0.42,18,6.8838
0.42,21,6.9285
0.42,24,6.973
0.42,27,7.0038
0.42,30,7.0124
0.42,33,7.0018
0.42,36,6.9842
0.42,39,6.9727
0.42,42,6.9719
0.42,45,6.9738
0.42,48,6.9656
0.42,51,6.9443
0.42,54,6.9194
0.42,57,6.9016
0.42,60,6.895
0.44,0,7.6785
0.44,3,7.6821
0.44,6,7.6908
0.44,9,7.7063
0.44,12,7.7309
0.44,15,7.7672
0.44,18,7.8155
0.44,21,7.8718
0.44,24,7.9247
0.44,27,7.9584
0.44,30,7.962
0.44,33,7.9391
0.44,36,7.9073
0.44,39,7.8852
0.44,42,7.88
0.44,45,7.8815
0.44,48,7.8712
0.44,51,7.8429
0.44,54,7.8089
0.44,57,7.7844
0.44,60,7.7755
0.46,0,8.5713
0.46,3,8.5807
0.46,6,8.6054
0.46,9,8.6429
0.46,12,8.6909
0.46,15,8.747
0.46,18,8.8088
0.46,21,8.8707
0.46,24,8.9211
0.46,27,8.943
0.46,30,8.9239
0.46,33,8.8695
0.46,36,8.8052
0.46,39,8.7586
0.46,42,8.741
0.46,45,8.7401
0.46,48,8.7295
0.46,51,8.6972
0.46,54,8.6562
0.46,57,8.6261
0.46,60,8.6151
0.48,0,9.5381
0.48,3,9.5533
0.48,6,9.5934
0.48,9,9.653
0.48,12,9.7244
0.48,15,9.8
0.48,18,9.872
0.48,21,9.9313
0.48,24,9.9658
0.48,27,9.9586
0.48,30,9.8971
0.48,33,9.7904
0.48,36,9.673
0.48,39,9.5836
0.48,42,9.541
0.48,45,9.5326
0.48,48,9.524
0.48,51,9.4929
0.48,54,9.4493
0.48,57,9.4154
0.48,60,9.4026
0.5,0,10.6195
0.5,3,10.6388
0.5,6,10.6898
0.5,9,10.7647
0.5,12,10.852
0.5,15,10.939
0.5,18,11.0123
0.5,21,11.0584
0.5,24,11.0638
0.5,27,11.013
0.5,30,10.8946
0.5,33,10.7197
0.5,36,10.5314
0.5,39,10.3814
0.5,42,10.2983
0.5,45,10.2736
0.5,48,10.2674
0.5,51,10.2432
0.5,54,10.2016
0.5,57,10.1653
0.5,60,10.1508
